^C:\USERS\ISAK EKEDAHL\DOCUMENTS\VISUAL STUDIO 2013\PROJECTS\PROJECT2\PROJECT2\MAIN.CPP
D:\PROGRAM\VISUAL STUDIO\VC\BIN\1033\CLUI.DLL
C:\WINDOWS\GLOBALIZATION\SORTING\SORTDEFAULT.NLS
D:\PROGRAM\VISUAL STUDIO\VC\BIN\MSPDBSRV.EXE
C:\WINDOWS\SYSTEM32\TZRES.DLL
D:\PROGRAM\VISUAL STUDIO\VC\INCLUDE\STRING.H
D:\PROGRAM\VISUAL STUDIO\VC\INCLUDE\CRTDEFS.H
D:\PROGRAM\VISUAL STUDIO\VC\INCLUDE\SAL.H
D:\PROGRAM\VISUAL STUDIO\VC\INCLUDE\CONCURRENCYSAL.H
D:\PROGRAM\VISUAL STUDIO\VC\INCLUDE\VADEFS.H
D:\PROGRAM\VISUAL STUDIO\VC\INCLUDE\STDIO.H
D:\PROGRAM\VISUAL STUDIO\VC\INCLUDE\SWPRINTF.INL
C:\PROGRAM FILES (X86)\WINDOWS KITS\8.1\INCLUDE\SHARED\SDKDDKVER.H
D:\PROGRAM\VISUAL STUDIO\VC\INCLUDE\CASSERT
D:\PROGRAM\VISUAL STUDIO\VC\INCLUDE\YVALS.H
D:\PROGRAM\VISUAL STUDIO\VC\INCLUDE\XKEYCHECK.H
D:\PROGRAM\VISUAL STUDIO\VC\INCLUDE\USE_ANSI.H
D:\PROGRAM\VISUAL STUDIO\VC\INCLUDE\ASSERT.H
D:\PROGRAM\VISUAL STUDIO\VC\INCLUDE\TCHAR.H
D:\PROGRAM\VISUAL STUDIO\VC\INCLUDE\MBSTRING.H
D:\PROGRAM\VISUAL STUDIO\VC\INCLUDE\STRING
D:\PROGRAM\VISUAL STUDIO\VC\INCLUDE\ITERATOR
D:\PROGRAM\VISUAL STUDIO\VC\INCLUDE\ISTREAM
D:\PROGRAM\VISUAL STUDIO\VC\INCLUDE\OSTREAM
D:\PROGRAM\VISUAL STUDIO\VC\INCLUDE\IOS
D:\PROGRAM\VISUAL STUDIO\VC\INCLUDE\XLOCNUM
D:\PROGRAM\VISUAL STUDIO\VC\INCLUDE\CLIMITS
D:\PROGRAM\VISUAL STUDIO\VC\INCLUDE\LIMITS.H
D:\PROGRAM\VISUAL STUDIO\VC\INCLUDE\CMATH
D:\PROGRAM\VISUAL STUDIO\VC\INCLUDE\MATH.H
D:\PROGRAM\VISUAL STUDIO\VC\INCLUDE\XTGMATH.H
D:\PROGRAM\VISUAL STUDIO\VC\INCLUDE\XTR1COMMON
D:\PROGRAM\VISUAL STUDIO\VC\INCLUDE\CSTDIO
D:\PROGRAM\VISUAL STUDIO\VC\INCLUDE\CSTDLIB
D:\PROGRAM\VISUAL STUDIO\VC\INCLUDE\STDLIB.H
D:\PROGRAM\VISUAL STUDIO\VC\INCLUDE\STREAMBUF
D:\PROGRAM\VISUAL STUDIO\VC\INCLUDE\XIOSBASE
D:\PROGRAM\VISUAL STUDIO\VC\INCLUDE\XLOCALE
D:\PROGRAM\VISUAL STUDIO\VC\INCLUDE\CSTRING
D:\PROGRAM\VISUAL STUDIO\VC\INCLUDE\STDEXCEPT
D:\PROGRAM\VISUAL STUDIO\VC\INCLUDE\EXCEPTION
D:\PROGRAM\VISUAL STUDIO\VC\INCLUDE\XSTDDEF
D:\PROGRAM\VISUAL STUDIO\VC\INCLUDE\CSTDDEF
D:\PROGRAM\VISUAL STUDIO\VC\INCLUDE\STDDEF.H
D:\PROGRAM\VISUAL STUDIO\VC\INCLUDE\INITIALIZER_LIST
D:\PROGRAM\VISUAL STUDIO\VC\INCLUDE\EH.H
D:\PROGRAM\VISUAL STUDIO\VC\INCLUDE\MALLOC.H
D:\PROGRAM\VISUAL STUDIO\VC\INCLUDE\XSTRING
D:\PROGRAM\VISUAL STUDIO\VC\INCLUDE\XMEMORY0
D:\PROGRAM\VISUAL STUDIO\VC\INCLUDE\LIMITS
D:\PROGRAM\VISUAL STUDIO\VC\INCLUDE\YMATH.H
D:\PROGRAM\VISUAL STUDIO\VC\INCLUDE\CFLOAT
D:\PROGRAM\VISUAL STUDIO\VC\INCLUDE\FLOAT.H
D:\PROGRAM\VISUAL STUDIO\VC\INCLUDE\CRTWRN.H
D:\PROGRAM\VISUAL STUDIO\VC\INCLUDE\CWCHAR
D:\PROGRAM\VISUAL STUDIO\VC\INCLUDE\WCHAR.H
D:\PROGRAM\VISUAL STUDIO\VC\INCLUDE\WTIME.INL
D:\PROGRAM\VISUAL STUDIO\VC\INCLUDE\NEW
D:\PROGRAM\VISUAL STUDIO\VC\INCLUDE\XUTILITY
D:\PROGRAM\VISUAL STUDIO\VC\INCLUDE\UTILITY
D:\PROGRAM\VISUAL STUDIO\VC\INCLUDE\IOSFWD
D:\PROGRAM\VISUAL STUDIO\VC\INCLUDE\CRTDBG.H
D:\PROGRAM\VISUAL STUDIO\VC\INCLUDE\TYPE_TRAITS
D:\PROGRAM\VISUAL STUDIO\VC\INCLUDE\XREFWRAP
D:\PROGRAM\VISUAL STUDIO\VC\INCLUDE\XATOMIC0.H
D:\PROGRAM\VISUAL STUDIO\VC\INCLUDE\INTRIN.H
D:\PROGRAM\VISUAL STUDIO\VC\INCLUDE\SETJMP.H
D:\PROGRAM\VISUAL STUDIO\VC\INCLUDE\IMMINTRIN.H
D:\PROGRAM\VISUAL STUDIO\VC\INCLUDE\WMMINTRIN.H
D:\PROGRAM\VISUAL STUDIO\VC\INCLUDE\NMMINTRIN.H
D:\PROGRAM\VISUAL STUDIO\VC\INCLUDE\SMMINTRIN.H
D:\PROGRAM\VISUAL STUDIO\VC\INCLUDE\TMMINTRIN.H
D:\PROGRAM\VISUAL STUDIO\VC\INCLUDE\PMMINTRIN.H
D:\PROGRAM\VISUAL STUDIO\VC\INCLUDE\EMMINTRIN.H
D:\PROGRAM\VISUAL STUDIO\VC\INCLUDE\XMMINTRIN.H
D:\PROGRAM\VISUAL STUDIO\VC\INCLUDE\MMINTRIN.H
D:\PROGRAM\VISUAL STUDIO\VC\INCLUDE\AMMINTRIN.H
D:\PROGRAM\VISUAL STUDIO\VC\INCLUDE\MM3DNOW.H
D:\PROGRAM\VISUAL STUDIO\VC\INCLUDE\TYPEINFO
D:\PROGRAM\VISUAL STUDIO\VC\INCLUDE\XLOCINFO
D:\PROGRAM\VISUAL STUDIO\VC\INCLUDE\XLOCINFO.H
D:\PROGRAM\VISUAL STUDIO\VC\INCLUDE\CTYPE.H
D:\PROGRAM\VISUAL STUDIO\VC\INCLUDE\LOCALE.H
D:\PROGRAM\VISUAL STUDIO\VC\INCLUDE\XDEBUG
D:\PROGRAM\VISUAL STUDIO\VC\INCLUDE\XMEMORY
D:\PROGRAM\VISUAL STUDIO\VC\INCLUDE\XFACET
D:\PROGRAM\VISUAL STUDIO\VC\INCLUDE\SYSTEM_ERROR
D:\PROGRAM\VISUAL STUDIO\VC\INCLUDE\CERRNO
D:\PROGRAM\VISUAL STUDIO\VC\INCLUDE\ERRNO.H
D:\PROGRAM\VISUAL STUDIO\VC\INCLUDE\SHARE.H
D:\PROGRAM\VISUAL STUDIO\VC\INCLUDE\VECTOR
D:\PROGRAM\VISUAL STUDIO\VC\INCLUDE\MAP
D:\PROGRAM\VISUAL STUDIO\VC\INCLUDE\XTREE
D:\PROGRAM\VISUAL STUDIO\VC\INCLUDE\TUPLE
D:\PROGRAM\VISUAL STUDIO\VC\INCLUDE\FSTREAM
D:\PROGRAM\VISUAL STUDIO\VC\INCLUDE\SSTREAM
D:\PROGRAM\VISUAL STUDIO\VC\INCLUDE\IOSTREAM
C:\USERS\ISAK EKEDAHL\DOCUMENTS\VISUAL STUDIO 2013\PROJECTS\PROJECT2\PROJECT2\SINGELLINKEDLIST.H
C:\PROGRAM FILES (X86)\VISUAL LEAK DETECTOR\INCLUDE\VLD.H
C:\PROGRAM FILES (X86)\VISUAL LEAK DETECTOR\INCLUDE\VLD_DEF.H
C:\USERS\ISAK EKEDAHL\DOCUMENTS\VISUAL STUDIO 2013\PROJECTS\PROJECT2\PROJECT2\SEARCHTREE.H
C:\USERS\ISAK EKEDAHL\DOCUMENTS\VISUAL STUDIO 2013\PROJECTS\PROJECT2\PROJECT2\DOUBLELINKEDLIST.H
C:\USERS\ISAK EKEDAHL\DOCUMENTS\VISUAL STUDIO 2013\PROJECTS\PROJECT2\PROJECT2\UNIT.HPP
C:\USERS\ISAK EKEDAHL\DOCUMENTS\VISUAL STUDIO 2013\PROJECTS\PROJECT2\PROJECT2\JUSTDOIT.H
^C:\USERS\ISAK EKEDAHL\DOCUMENTS\VISUAL STUDIO 2013\PROJECTS\PROJECT2\PROJECT2\SEARCHTREE.CPP
D:\PROGRAM\VISUAL STUDIO\VC\BIN\1033\CLUI.DLL
C:\WINDOWS\GLOBALIZATION\SORTING\SORTDEFAULT.NLS
D:\PROGRAM\VISUAL STUDIO\VC\BIN\MSPDBSRV.EXE
C:\WINDOWS\SYSTEM32\TZRES.DLL
C:\USERS\ISAK EKEDAHL\DOCUMENTS\VISUAL STUDIO 2013\PROJECTS\PROJECT2\PROJECT2\SEARCHTREE.H
D:\PROGRAM\VISUAL STUDIO\VC\INCLUDE\STDIO.H
D:\PROGRAM\VISUAL STUDIO\VC\INCLUDE\CRTDEFS.H
D:\PROGRAM\VISUAL STUDIO\VC\INCLUDE\SAL.H
D:\PROGRAM\VISUAL STUDIO\VC\INCLUDE\CONCURRENCYSAL.H
D:\PROGRAM\VISUAL STUDIO\VC\INCLUDE\VADEFS.H
D:\PROGRAM\VISUAL STUDIO\VC\INCLUDE\SWPRINTF.INL
D:\PROGRAM\VISUAL STUDIO\VC\INCLUDE\TCHAR.H
D:\PROGRAM\VISUAL STUDIO\VC\INCLUDE\STRING.H
D:\PROGRAM\VISUAL STUDIO\VC\INCLUDE\MBSTRING.H
D:\PROGRAM\VISUAL STUDIO\VC\INCLUDE\UTILITY
D:\PROGRAM\VISUAL STUDIO\VC\INCLUDE\XSTDDEF
D:\PROGRAM\VISUAL STUDIO\VC\INCLUDE\STDLIB.H
D:\PROGRAM\VISUAL STUDIO\VC\INCLUDE\LIMITS.H
D:\PROGRAM\VISUAL STUDIO\VC\INCLUDE\CSTDDEF
D:\PROGRAM\VISUAL STUDIO\VC\INCLUDE\YVALS.H
D:\PROGRAM\VISUAL STUDIO\VC\INCLUDE\XKEYCHECK.H
D:\PROGRAM\VISUAL STUDIO\VC\INCLUDE\USE_ANSI.H
D:\PROGRAM\VISUAL STUDIO\VC\INCLUDE\STDDEF.H
D:\PROGRAM\VISUAL STUDIO\VC\INCLUDE\INITIALIZER_LIST
D:\PROGRAM\VISUAL STUDIO\VC\INCLUDE\XTR1COMMON
D:\PROGRAM\VISUAL STUDIO\VC\INCLUDE\IOSFWD
D:\PROGRAM\VISUAL STUDIO\VC\INCLUDE\CSTDIO
D:\PROGRAM\VISUAL STUDIO\VC\INCLUDE\CSTRING
D:\PROGRAM\VISUAL STUDIO\VC\INCLUDE\CWCHAR
D:\PROGRAM\VISUAL STUDIO\VC\INCLUDE\WCHAR.H
D:\PROGRAM\VISUAL STUDIO\VC\INCLUDE\WTIME.INL
D:\PROGRAM\VISUAL STUDIO\VC\INCLUDE\CRTDBG.H
D:\PROGRAM\VISUAL STUDIO\VC\INCLUDE\TYPE_TRAITS
D:\PROGRAM\VISUAL STUDIO\VC\INCLUDE\XREFWRAP
^C:\USERS\ISAK EKEDAHL\DOCUMENTS\VISUAL STUDIO 2013\PROJECTS\PROJECT2\PROJECT2\SINGELLINKEDLIST.CPP
C:\USERS\ISAK EKEDAHL\DOCUMENTS\VISUAL STUDIO 2013\PROJECTS\PROJECT2\PROJECT2\SINGELLINKEDLIST.H
^C:\USERS\ISAK EKEDAHL\DOCUMENTS\VISUAL STUDIO 2013\PROJECTS\PROJECT2\PROJECT2\DOUBLELINKEDLIST.CPP
C:\USERS\ISAK EKEDAHL\DOCUMENTS\VISUAL STUDIO 2013\PROJECTS\PROJECT2\PROJECT2\DOUBLELINKEDLIST.H
^C:\USERS\ISAK EKEDAHL\DOCUMENTS\VISUAL STUDIO 2013\PROJECTS\PROJECT2\PROJECT2\JUSTDOIT.CPP
D:\PROGRAM\VISUAL STUDIO\VC\BIN\1033\CLUI.DLL
C:\WINDOWS\GLOBALIZATION\SORTING\SORTDEFAULT.NLS
D:\PROGRAM\VISUAL STUDIO\VC\BIN\MSPDBSRV.EXE
C:\WINDOWS\SYSTEM32\TZRES.DLL
C:\USERS\ISAK EKEDAHL\DOCUMENTS\VISUAL STUDIO 2013\PROJECTS\PROJECT2\PROJECT2\JUSTDOIT.H
D:\PROGRAM\VISUAL STUDIO\VC\INCLUDE\STDIO.H
D:\PROGRAM\VISUAL STUDIO\VC\INCLUDE\CRTDEFS.H
D:\PROGRAM\VISUAL STUDIO\VC\INCLUDE\SAL.H
D:\PROGRAM\VISUAL STUDIO\VC\INCLUDE\CONCURRENCYSAL.H
D:\PROGRAM\VISUAL STUDIO\VC\INCLUDE\VADEFS.H
D:\PROGRAM\VISUAL STUDIO\VC\INCLUDE\SWPRINTF.INL
D:\PROGRAM\VISUAL STUDIO\VC\INCLUDE\IOSTREAM
D:\PROGRAM\VISUAL STUDIO\VC\INCLUDE\ISTREAM
D:\PROGRAM\VISUAL STUDIO\VC\INCLUDE\OSTREAM
D:\PROGRAM\VISUAL STUDIO\VC\INCLUDE\IOS
D:\PROGRAM\VISUAL STUDIO\VC\INCLUDE\XLOCNUM
D:\PROGRAM\VISUAL STUDIO\VC\INCLUDE\CLIMITS
D:\PROGRAM\VISUAL STUDIO\VC\INCLUDE\YVALS.H
D:\PROGRAM\VISUAL STUDIO\VC\INCLUDE\XKEYCHECK.H
D:\PROGRAM\VISUAL STUDIO\VC\INCLUDE\USE_ANSI.H
D:\PROGRAM\VISUAL STUDIO\VC\INCLUDE\LIMITS.H
D:\PROGRAM\VISUAL STUDIO\VC\INCLUDE\CMATH
D:\PROGRAM\VISUAL STUDIO\VC\INCLUDE\MATH.H
D:\PROGRAM\VISUAL STUDIO\VC\INCLUDE\XTGMATH.H
D:\PROGRAM\VISUAL STUDIO\VC\INCLUDE\XTR1COMMON
D:\PROGRAM\VISUAL STUDIO\VC\INCLUDE\CSTDIO
D:\PROGRAM\VISUAL STUDIO\VC\INCLUDE\CSTDLIB
D:\PROGRAM\VISUAL STUDIO\VC\INCLUDE\STDLIB.H
D:\PROGRAM\VISUAL STUDIO\VC\INCLUDE\STREAMBUF
D:\PROGRAM\VISUAL STUDIO\VC\INCLUDE\XIOSBASE
D:\PROGRAM\VISUAL STUDIO\VC\INCLUDE\XLOCALE
D:\PROGRAM\VISUAL STUDIO\VC\INCLUDE\CSTRING
D:\PROGRAM\VISUAL STUDIO\VC\INCLUDE\STRING.H
D:\PROGRAM\VISUAL STUDIO\VC\INCLUDE\STDEXCEPT
D:\PROGRAM\VISUAL STUDIO\VC\INCLUDE\EXCEPTION
D:\PROGRAM\VISUAL STUDIO\VC\INCLUDE\XSTDDEF
D:\PROGRAM\VISUAL STUDIO\VC\INCLUDE\CSTDDEF
D:\PROGRAM\VISUAL STUDIO\VC\INCLUDE\STDDEF.H
D:\PROGRAM\VISUAL STUDIO\VC\INCLUDE\INITIALIZER_LIST
D:\PROGRAM\VISUAL STUDIO\VC\INCLUDE\EH.H
D:\PROGRAM\VISUAL STUDIO\VC\INCLUDE\MALLOC.H
D:\PROGRAM\VISUAL STUDIO\VC\INCLUDE\XSTRING
D:\PROGRAM\VISUAL STUDIO\VC\INCLUDE\XMEMORY0
D:\PROGRAM\VISUAL STUDIO\VC\INCLUDE\LIMITS
D:\PROGRAM\VISUAL STUDIO\VC\INCLUDE\YMATH.H
D:\PROGRAM\VISUAL STUDIO\VC\INCLUDE\CFLOAT
D:\PROGRAM\VISUAL STUDIO\VC\INCLUDE\FLOAT.H
D:\PROGRAM\VISUAL STUDIO\VC\INCLUDE\CRTWRN.H
D:\PROGRAM\VISUAL STUDIO\VC\INCLUDE\CWCHAR
D:\PROGRAM\VISUAL STUDIO\VC\INCLUDE\WCHAR.H
D:\PROGRAM\VISUAL STUDIO\VC\INCLUDE\WTIME.INL
D:\PROGRAM\VISUAL STUDIO\VC\INCLUDE\NEW
D:\PROGRAM\VISUAL STUDIO\VC\INCLUDE\XUTILITY
D:\PROGRAM\VISUAL STUDIO\VC\INCLUDE\UTILITY
D:\PROGRAM\VISUAL STUDIO\VC\INCLUDE\IOSFWD
D:\PROGRAM\VISUAL STUDIO\VC\INCLUDE\CRTDBG.H
D:\PROGRAM\VISUAL STUDIO\VC\INCLUDE\TYPE_TRAITS
D:\PROGRAM\VISUAL STUDIO\VC\INCLUDE\XREFWRAP
D:\PROGRAM\VISUAL STUDIO\VC\INCLUDE\XATOMIC0.H
D:\PROGRAM\VISUAL STUDIO\VC\INCLUDE\INTRIN.H
D:\PROGRAM\VISUAL STUDIO\VC\INCLUDE\SETJMP.H
D:\PROGRAM\VISUAL STUDIO\VC\INCLUDE\IMMINTRIN.H
D:\PROGRAM\VISUAL STUDIO\VC\INCLUDE\WMMINTRIN.H
D:\PROGRAM\VISUAL STUDIO\VC\INCLUDE\NMMINTRIN.H
D:\PROGRAM\VISUAL STUDIO\VC\INCLUDE\SMMINTRIN.H
D:\PROGRAM\VISUAL STUDIO\VC\INCLUDE\TMMINTRIN.H
D:\PROGRAM\VISUAL STUDIO\VC\INCLUDE\PMMINTRIN.H
D:\PROGRAM\VISUAL STUDIO\VC\INCLUDE\EMMINTRIN.H
D:\PROGRAM\VISUAL STUDIO\VC\INCLUDE\XMMINTRIN.H
D:\PROGRAM\VISUAL STUDIO\VC\INCLUDE\MMINTRIN.H
D:\PROGRAM\VISUAL STUDIO\VC\INCLUDE\AMMINTRIN.H
D:\PROGRAM\VISUAL STUDIO\VC\INCLUDE\MM3DNOW.H
D:\PROGRAM\VISUAL STUDIO\VC\INCLUDE\TYPEINFO
D:\PROGRAM\VISUAL STUDIO\VC\INCLUDE\XLOCINFO
D:\PROGRAM\VISUAL STUDIO\VC\INCLUDE\XLOCINFO.H
D:\PROGRAM\VISUAL STUDIO\VC\INCLUDE\CTYPE.H
D:\PROGRAM\VISUAL STUDIO\VC\INCLUDE\LOCALE.H
D:\PROGRAM\VISUAL STUDIO\VC\INCLUDE\XDEBUG
D:\PROGRAM\VISUAL STUDIO\VC\INCLUDE\XMEMORY
D:\PROGRAM\VISUAL STUDIO\VC\INCLUDE\XFACET
D:\PROGRAM\VISUAL STUDIO\VC\INCLUDE\SYSTEM_ERROR
D:\PROGRAM\VISUAL STUDIO\VC\INCLUDE\CERRNO
D:\PROGRAM\VISUAL STUDIO\VC\INCLUDE\ERRNO.H
D:\PROGRAM\VISUAL STUDIO\VC\INCLUDE\SHARE.H
