^C:\USERS\ISAK EKEDAHL\DOCUMENTS\VISUAL STUDIO 2013\PROJECTS\PROJECT2\PROJECT2\MAIN.CPP
C:\USERS\ISAK EKEDAHL\DOCUMENTS\VISUAL STUDIO 2013\PROJECTS\PROJECT2\PROJECT2\DEBUG\VC120.PDB
C:\USERS\ISAK EKEDAHL\DOCUMENTS\VISUAL STUDIO 2013\PROJECTS\PROJECT2\PROJECT2\DEBUG\VC120.IDB
C:\USERS\ISAK EKEDAHL\DOCUMENTS\VISUAL STUDIO 2013\PROJECTS\PROJECT2\PROJECT2\DEBUG\MAIN.OBJ
^C:\USERS\ISAK EKEDAHL\DOCUMENTS\VISUAL STUDIO 2013\PROJECTS\PROJECT2\PROJECT2\SEARCHTREE.CPP
C:\USERS\ISAK EKEDAHL\DOCUMENTS\VISUAL STUDIO 2013\PROJECTS\PROJECT2\PROJECT2\DEBUG\VC120.PDB
C:\USERS\ISAK EKEDAHL\DOCUMENTS\VISUAL STUDIO 2013\PROJECTS\PROJECT2\PROJECT2\DEBUG\VC120.IDB
^C:\USERS\ISAK EKEDAHL\DOCUMENTS\VISUAL STUDIO 2013\PROJECTS\PROJECT2\PROJECT2\DOUBLELINKEDLIST.CPP|C:\USERS\ISAK EKEDAHL\DOCUMENTS\VISUAL STUDIO 2013\PROJECTS\PROJECT2\PROJECT2\SEARCHTREE.CPP|C:\USERS\ISAK EKEDAHL\DOCUMENTS\VISUAL STUDIO 2013\PROJECTS\PROJECT2\PROJECT2\SINGELLINKEDLIST.CPP
C:\USERS\ISAK EKEDAHL\DOCUMENTS\VISUAL STUDIO 2013\PROJECTS\PROJECT2\PROJECT2\DEBUG\VC120.PDB
C:\USERS\ISAK EKEDAHL\DOCUMENTS\VISUAL STUDIO 2013\PROJECTS\PROJECT2\PROJECT2\DEBUG\VC120.IDB
C:\USERS\ISAK EKEDAHL\DOCUMENTS\VISUAL STUDIO 2013\PROJECTS\PROJECT2\PROJECT2\DEBUG\DOUBLELINKEDLIST.OBJ
C:\USERS\ISAK EKEDAHL\DOCUMENTS\VISUAL STUDIO 2013\PROJECTS\PROJECT2\PROJECT2\DEBUG\SEARCHTREE.OBJ
C:\USERS\ISAK EKEDAHL\DOCUMENTS\VISUAL STUDIO 2013\PROJECTS\PROJECT2\PROJECT2\DEBUG\SINGELLINKEDLIST.OBJ
^C:\USERS\ISAK EKEDAHL\DOCUMENTS\VISUAL STUDIO 2013\PROJECTS\PROJECT2\PROJECT2\DOUBLELINKEDLIST.CPP
C:\USERS\ISAK EKEDAHL\DOCUMENTS\VISUAL STUDIO 2013\PROJECTS\PROJECT2\PROJECT2\DEBUG\VC120.PDB
^C:\USERS\ISAK EKEDAHL\DOCUMENTS\VISUAL STUDIO 2013\PROJECTS\PROJECT2\PROJECT2\SINGELLINKEDLIST.CPP
C:\USERS\ISAK EKEDAHL\DOCUMENTS\VISUAL STUDIO 2013\PROJECTS\PROJECT2\PROJECT2\DEBUG\VC120.PDB
^C:\USERS\ISAK EKEDAHL\DOCUMENTS\VISUAL STUDIO 2013\PROJECTS\PROJECT2\PROJECT2\JUSTDOIT.CPP
C:\USERS\ISAK EKEDAHL\DOCUMENTS\VISUAL STUDIO 2013\PROJECTS\PROJECT2\PROJECT2\DEBUG\VC120.PDB
C:\USERS\ISAK EKEDAHL\DOCUMENTS\VISUAL STUDIO 2013\PROJECTS\PROJECT2\PROJECT2\DEBUG\VC120.IDB
C:\USERS\ISAK EKEDAHL\DOCUMENTS\VISUAL STUDIO 2013\PROJECTS\PROJECT2\PROJECT2\DEBUG\JUSTDOIT.OBJ
^C:\USERS\ISAK EKEDAHL\DOCUMENTS\VISUAL STUDIO 2013\PROJECTS\PROJECT2\PROJECT2\JUSTDOIT.CPP|C:\USERS\ISAK EKEDAHL\DOCUMENTS\VISUAL STUDIO 2013\PROJECTS\PROJECT2\PROJECT2\MAIN.CPP
C:\USERS\ISAK EKEDAHL\DOCUMENTS\VISUAL STUDIO 2013\PROJECTS\PROJECT2\PROJECT2\DEBUG\VC120.PDB
C:\USERS\ISAK EKEDAHL\DOCUMENTS\VISUAL STUDIO 2013\PROJECTS\PROJECT2\PROJECT2\DEBUG\VC120.IDB
C:\USERS\ISAK EKEDAHL\DOCUMENTS\VISUAL STUDIO 2013\PROJECTS\PROJECT2\PROJECT2\DEBUG\JUSTDOIT.OBJ
